<svg width="24" height="24" viewBox="0 0 24 24" fill="none" xmlns="http://www.w3.org/2000/svg">
<path d="M14.023 8.31299C14.1328 8.50839 14.3911 8.66421 14.614 8.66502L22.969 8.71185C23.1853 8.71347 23.3823 8.60043 23.4954 8.41634C23.6092 8.23225 23.6125 7.99892 23.514 7.80675L19.7038 0.354438C19.6021 0.154202 19.3736 0.00806261 19.1508 0.000795999C18.9263 -0.00889282 18.6615 0.0694251 18.5436 0.259972L17.3753 2.15494C15.6878 1.2014 13.7517 0.641873 11.6783 0.641873C5.23923 0.640258 0 5.88029 0 12.3201C0 18.7608 5.23923 24 11.6799 24C18.1197 24 23.3589 18.7608 23.3589 12.3201C23.3589 11.6153 23.2863 10.9274 23.166 10.2564C23.1014 10.2621 23.04 10.2798 22.9746 10.2798H22.9577L19.0353 10.2685C19.2178 10.9225 19.3219 11.608 19.3219 12.3193C19.3219 16.5331 15.8937 19.9622 11.6799 19.9622C7.46523 19.963 4.03701 16.5331 4.03701 12.3201C4.03701 8.10549 7.46523 4.67727 11.6799 4.67727C12.9757 4.67727 14.1909 5.01234 15.2607 5.58559L13.985 7.65496C13.8671 7.84551 13.9148 8.1168 14.023 8.31299Z" fill="white"/>
</svg>
