<svg width="78" height="52" viewBox="0 0 78 52" fill="none" xmlns="http://www.w3.org/2000/svg">
<rect x="1.5" y="1" width="75" height="50" rx="4" fill="white" stroke="#8698AE" stroke-width="2"/>
<path d="M36.0394 32.2198H32.5198L34.7212 18.608H38.2406L36.0394 32.2198Z" fill="#00579F"/>
<path d="M48.798 18.9408C48.1038 18.6654 47.0027 18.3613 45.6412 18.3613C42.1655 18.3613 39.718 20.2148 39.703 22.8646C39.6741 24.8196 41.4553 25.9055 42.7876 26.5574C44.1493 27.2235 44.6121 27.6583 44.6121 28.252C44.5983 29.1639 43.5118 29.5843 42.4985 29.5843C41.0933 29.5843 40.3404 29.3676 39.1962 28.8602L38.7327 28.6427L38.2402 31.6983C39.0657 32.0744 40.5866 32.4081 42.1655 32.4227C45.8585 32.4227 48.2628 30.598 48.2913 27.7741C48.3053 26.2246 47.3647 25.0373 45.3369 24.0671C44.1059 23.4443 43.3521 23.0243 43.3521 22.3871C43.3665 21.8078 43.9897 21.2144 45.3793 21.2144C46.5235 21.1853 47.3642 21.4604 48.001 21.7356L48.3194 21.8801L48.798 18.9408Z" fill="#00579F"/>
<path fill-rule="evenodd" clip-rule="evenodd" d="M55.098 18.608H57.8204L60.6598 32.2196H57.401C57.401 32.2196 57.0821 30.6557 56.981 30.1778H52.4622C52.3315 30.5396 51.7235 32.2196 51.7235 32.2196H48.0305L53.2584 19.7374C53.6206 18.854 54.2584 18.608 55.098 18.608ZM54.8811 23.5892C54.8811 23.5892 53.7657 26.6157 53.4759 27.3977H56.4013C56.2566 26.7171 55.5901 23.4589 55.5901 23.4589L55.3441 22.286C55.2406 22.588 55.0908 23.0033 54.9897 23.2833C54.9212 23.4732 54.8752 23.6009 54.8811 23.5892Z" fill="#00579F"/>
<path d="M29.5799 18.608L26.1331 27.89L25.7564 26.0075C25.1192 23.8353 23.1206 21.4754 20.8904 20.3019L24.0476 32.2054H27.7694L33.3016 18.608H29.5799V18.608Z" fill="#00579F"/>
<path d="M22.9325 18.608H17.2698L17.2119 18.8831C21.6291 20.0126 24.5546 22.7354 25.7565 26.0081L24.5255 19.7522C24.3229 18.8829 23.7001 18.6367 22.9325 18.608Z" fill="#FAA61A"/>
</svg>
